…
As shown above, there are 19 artists who had at least 30 songs on
Billboard’s Top 100 for 10 weeks or more. We can see that Elton John
dominates this category, with the most songs of this classification.

3) Wrangling the Olympics
-------------------------

### Part A:

    ## # A tibble: 132 x 2
    ##    event                                 topheight
    ##    <chr>                                     <dbl>
    ##  1 Basketball Women's Basketball              198.
    ##  2 Volleyball Women's Volleyball              193 
    ##  3 Athletics Women's Shot Put                 192.
    ##  4 Swimming Women's 200 metres Freestyle      191 
    ##  5 Athletics Women's Heptathlon               189.
    ##  6 Athletics Women's Discus Throw             188.
    ##  7 Athletics Women's High Jump                188 
    ##  8 Rowing Women's Coxed Eights                188 
    ##  9 Rowing Women's Double Sculls               188.
    ## 10 Athletics Women's Triple Jump              187.
    ## # ... with 122 more rows
…
